module gitlab.com/vaardan/mappify

go 1.19

require (
	github.com/AlecAivazis/survey/v2 v2.3.6
	github.com/dave/jennifer v1.4.1
	github.com/spf13/cobra v1.6.1
	golang.org/x/tools v0.5.0
)

require (
	github.com/inconshreveable/mousetrap v1.0.1 // indirect
	github.com/kballard/go-shellquote v0.0.0-20180428030007-95032a82bc51 // indirect
	github.com/mattn/go-colorable v0.1.2 // indirect
	github.com/mattn/go-isatty v0.0.8 // indirect
	github.com/mgutz/ansi v0.0.0-20170206155736-9520e82c474b // indirect
	github.com/spf13/pflag v1.0.5 // indirect
	golang.org/x/mod v0.7.0 // indirect
	golang.org/x/sys v0.4.0 // indirect
	golang.org/x/term v0.0.0-20210503060354-a79de5458b56 // indirect
	golang.org/x/text v0.3.6 // indirect
)
